{
	"total": 465,
	"per_page": 15,
	"current_page": 1,
	"last_page": 31,
	"next_page_url": "https://prod.local.element67.dk:8000/campaigns/2/snapshots?page=2",
	"prev_page_url": null,
	"from": 1,
	"to": 15,
	"data": [{
				"participant_id": 14,
				"snapshot": {
					"timestamp": 1463493046542,
					"accelerometerSamples": [{
						"timestamp": 1463493046578,
						"measurements": [
							[-0.2942, 3.0401, 7.5903],
							...
							[-0.0196, 3.4519, 9.179]
						]
					}, {
						"timestamp": 1463493106579,
						"measurements": [...]
					}],
					"ambientLightSamples": [...],
					"compassSamples": [...],
				}
			},  ... ]
}